Lec 03
…
Problem: we want percent, not totals! Lets find them using count.

deathPenaltyData %>% count(State, Race)

## # A tibble: 81 x 3
##    State Race                n
##    <chr> <chr>           <int>
##  1 AL    Black              25
##  2 AL    White              33
##  3 AR    Black               7
##  4 AR    Latino              1
##  5 AR    White              19
##  6 AZ    Black               1
##  7 AZ    Latino              5
##  8 AZ    Native American     2
##  9 AZ    White              29
## 10 CA    Asian               1
## #  with 71 more rows
…
