Lab or Lecture Title
…
babies <- read_csv("../Data/baby_names.csv")

babies %>% group_by(Year, Gender) %>% mutate(Total = sum(Count))

## # A tibble: 1,825,433 x 5
## # Groups:   Year, Gender [270]
##    Name       Year Gender Count Total
##    <chr>     <dbl> <chr>  <dbl> <dbl>
##  1 Mary       1880 F       7065 90993
##  2 Anna       1880 F       2604 90993
##  3 Emma       1880 F       2003 90993
##  4 Elizabeth  1880 F       1939 90993
##  5 Minnie     1880 F       1746 90993
##  6 Margaret   1880 F       1578 90993
##  7 Ida        1880 F       1472 90993
##  8 Alice      1880 F       1414 90993
##  9 Bertha     1880 F       1320 90993
## 10 Sarah      1880 F       1288 90993
## #  with 1,825,423 more rows
…
